H:\maven_projects\vereinverwaltung\vereinverwaltung\src\main\java\application\DatabaseConnectionManager.java
H:\maven_projects\vereinverwaltung\vereinverwaltung\src\main\java\application\controller\VereinverwaltungUIController.java
H:\maven_projects\vereinverwaltung\vereinverwaltung\src\main\java\application\Main.java
H:\maven_projects\vereinverwaltung\vereinverwaltung\src\main\java\application\ClubMember.java
